Statistische analyse en presentatie met R - 5 Geavanceerd hercoderen van variabelen
…
5  Geavanceerd hercoderen van variabelen

5.1 Variabelen hercoderen met case_when

Vaak moeten we data wijzigen of transformeren op basis van verschillende mogelijke condities. We kunnen dit doen met de case_when() functie uit het dplyr package.

We zullen het gebruik van deze functie illustreren met behulp van een dataset met GPA-cijfers beschikbaar in het openintro package.

Het dataframe bevat de variabelen gpa en study_hours voor een steekproef van 193 studenten die in 2012 een inleidende cursus statistiek volgden aan een particuliere Amerikaanse universiteit. De gegevens zijn hieronder weergegeven als tibble:

library(openintro) # In dit package is de dataset gpa_study_hours opgenomen
library(tidyverse) # Nodig om een tibble te kunnen maken en weergeven
as_tibble(gpa_study_hours)

# A tibble: 193 × 2
     gpa study_hours
   <dbl>       <dbl>
 1  4             10
 2  3.8           25
 3  3.93          45
 4  3.4           10
 5  3.2            4
 6  3.52          10
 7  3.68          24
 8  3.4           40
 9  3.7           10
10  3.75          10
# ℹ 183 more rows
…
Om case_when() te gebruiken, moeten we R vertellen waar het resultaat moet worden opgeslagen: ofwel door het resultaat toe te wijzen aan de huidige variabele, ofwel door het toe te wijzen aan een nieuwe variabele in onze hercoderingsprocedure. Hiervoor gebruiken we mutate(). Het is erg belangrijk dat je een nieuwe variabele specificeert met mutate() tijdens het hercoderen (of een bestaande variabele die wordt overschreven). Anders weet R niet waar het de nieuwe, hergecodeerde gegevens moet plaatsen.

Met behulp van onderstaande code kunnen we het numerieke cijfer hercoderen naar een letter (grade) van A t/m F:

gpa_study_hours <- gpa_study_hours |>
  mutate(gpa_grade = case_when(
    gpa >= 3.7 ~ "A",
    gpa >= 2.7 ~ "B",
    gpa >= 1.7 ~ "C",
    gpa >= 1.3 ~ "D",
    gpa < 1.3 ~ "F"))  # Let op de twee haakjes: één om case_when af te sluiten en één om mutate af te sluiten
gpa_study_hours

# A tibble: 193 × 3
     gpa study_hours gpa_grade
   <dbl>       <dbl> <chr>    
 1  4             10 A        
 2  3.8           25 A        
 3  3.93          45 A        
 4  3.4           10 B        
 5  3.2            4 B        
 6  3.52          10 B        
 7  3.68          24 B        
 8  3.4           40 B        
 9  3.7           10 A        
10  3.75          10 A        
# ℹ 183 more rows
…
Hier creëren we een nieuwe variabele genaamd cum_laude met behulp van mutate().

gpa >= 3.3 & study_hours > 30 ~ 1,

Onze eerste voorwaarde is dat gpa 3.3 of hoger moet zijn en dat study_hours groter dan 30 moet zijn. Als aan deze voorwaarde is voldaan, zal cum_laude gelijk zijn aan 1.

gpa >= 3.3 ~ 0, gpa < 3.3 ~ 0))

We moeten ook de alternatieven specificeren. Ten eerste, als niet aan de vorige conditie is voldaan, maar gpa is hoger dan 3.3, wijs dan een 0 toe. Daarnaast, als niet aan de vorige conditie is voldaan, maar gpa is lager dan 3.3, wijs dan een 0 toe aan de nieuwe variabele cum_laude.

Door de eerste 10 rijen te printen en te inspecteren, kunnen we nagaan of de hercodering heeft gewerkt zoals bedoeld:

gpa_study_hours

# A tibble: 193 × 5
     gpa study_hours gpa_grade gpa_num cum_laude
   <dbl>       <dbl> <chr>       <dbl>     <dbl>
 1  4             10 A               1         0
 2  3.8           25 A               1         0
 3  3.93          45 A               1         1
 4  3.4           10 B               2         0
 5  3.2            4 B               2         0
 6  3.52          10 B               2         0
 7  3.68          24 B               2         0
 8  3.4           40 B               2         1
 9  3.7           10 A               1         0
10  3.75          10 A               1         0
# ℹ 183 more rows
…
